[gd_scene load_steps=5 format=2]

[ext_resource path="res://source/script/Icon.gd" type="Script" id=1]
[ext_resource path="res://source/assets/image/ic_lvl_1/1.png" type="Texture" id=2]
[ext_resource path="res://source/shader/motion_blur.shader" type="Shader" id=3]

[sub_resource type="ShaderMaterial" id=1]
shader = ExtResource( 3 )
shader_param/blur = 0.0

[node name="Icon" type="TextureRect" groups=[
"icon_group",
]]
material = SubResource( 1 )
margin_right = 196.0
margin_bottom = 160.0
texture = ExtResource( 2 )
script = ExtResource( 1 )
__meta__ = {
"_edit_use_anchors_": false
}

[node name="Tween" type="Tween" parent="."]
